{
    "name": "DeltaPosition.Extensions.Tests",
    "references": [
        "DeltaPosition",
        "UnityEngine.TestRunner",
        "UnityEditor.TestRunner"
    ],
    "includePlatforms": [
        "Editor"
    ],
    "excludePlatforms": [],
    "allowUnsafeCode": false,
    "overrideReferences": true,
    "precompiledReferences": [
        "nunit.framework.dll"
    ],
    "autoReferenced": false,
    "defineConstraints": [
        "UNITY_INCLUDE_TESTS"
    ],
    "versionDefines": []
}